<?xml version="1.0" encoding="utf-8"?>
<!-- Generator: Adobe Illustrator 27.9.0, SVG Export Plug-In . SVG Version: 6.00 Build 0)  -->
<svg version="1.1" id="Layer_1" xmlns="http://www.w3.org/2000/svg" xmlns:xlink="http://www.w3.org/1999/xlink" x="0px" y="0px"
	 viewBox="0 0 651.13 401.978" style="enable-background:new 0 0 651.13 401.978;" xml:space="preserve">
<style type="text/css">
	.st0{fill:#DEB6FC;}
	.st1{fill:#80F9D7;}
	.st2{fill:#878FA6;}
</style>
<g>
	<path class="st0" d="M474.139,257.337L453,220.724c-7.113,13.696-16.452,26.05-27.518,36.613H474.139z"/>
	<polygon class="st0" points="345.798,137.399 404.892,137.399 355.112,51.177 325.565,0 296.018,51.177 176.991,257.337 
		236.085,257.337 270.308,198.062 270.308,198.062 325.565,102.354 	"/>
	<path class="st1" d="M299.137,29.851c-57.382,13.822-100.02,65.48-100.02,127.104c0,12.833,1.858,25.231,5.304,36.949
		L299.137,29.851z"/>
	<path class="st1" d="M459.963,145.48H318.795l27.992,48.484h53.342c-13.343,25.279-39.887,42.558-70.404,42.558
		c-22.774,0-43.328-9.633-57.846-25.019l-26.284,45.525c22.739,19.136,52.085,30.672,84.131,30.672
		c59.353,0,109.46-39.553,125.423-93.736c3.457-11.736,5.322-24.154,5.322-37.009C460.469,153.087,460.292,149.262,459.963,145.48z"
		/>
	<path class="st2" d="M22.519,366.77l8.402-11.562h11.293c2.689,0,5.848,0,7.999,0.134c-1.21-1.612-3.092-4.369-4.571-6.519
		l-8.066-11.899L16.469,366.77H0l28.837-40.667c1.882-2.621,4.638-5.041,9.008-5.041c4.167,0,6.923,2.217,8.872,5.041l28.098,40.667
		H22.519z"/>
	<path class="st2" d="M135.517,347.142c0,13.578-9.344,20.367-28.03,20.367c-21.645,0-30.988-6.789-30.988-20.367V321.8h13.847
		v25.341c0,6.655,2.823,8.805,17.141,8.805c10.687,0,14.048-2.487,14.048-8.805V321.8h13.982V347.142z"/>
	<path class="st2" d="M201.199,321.8l-9.008,11.696h-16.065v33.273h-13.914v-33.273h-21.107l9.007-11.696H201.199z"/>
	<path class="st2" d="M266.936,344.251c0,16.067-11.024,23.258-32.87,23.258c-21.913,0-32.87-7.192-32.87-23.258
		c0-16.065,10.957-23.19,32.87-23.19C255.912,321.061,266.936,328.186,266.936,344.251z M253.089,344.251
		c0-9.679-5.041-11.494-19.023-11.494c-13.981,0-19.023,1.815-19.023,11.494c0,9.68,5.042,11.562,19.023,11.562
		C248.047,355.813,253.089,353.931,253.089,344.251z"/>
	<path class="st2" d="M330.855,338.672h28.77v28.098h-30.854c-15.594,0-27.089-9.881-27.089-22.921
		c0-13.176,11.495-22.048,27.089-22.048h32.198l-9.007,11.696h-23.191c-7.528,0-13.242,4.57-13.242,10.957
		c0,6.519,5.512,10.754,13.242,10.754h17.007v-6.519H322.52L330.855,338.672z"/>
	<path class="st2" d="M460.035,366.77l8.402-11.562h11.293c2.689,0,5.848,0,7.999,0.134c-1.21-1.612-3.092-4.369-4.571-6.519
		l-8.066-11.899l-21.107,29.846h-16.469l28.837-40.667c1.882-2.621,4.638-5.041,9.008-5.041c4.167,0,6.923,2.217,8.872,5.041
		l28.098,40.667H460.035z"/>
	<path class="st2" d="M520.777,321.8l20.233,29.845l21.107-29.845h16.401l-28.77,40.667c-1.949,2.621-4.705,5.041-9.007,5.041
		c-4.168,0-6.924-2.217-8.873-5.041L503.703,321.8H520.777z"/>
	<path class="st2" d="M651.13,321.8l-26.685,30.114v14.855h-13.982v-14.922L583.037,321.8h17.88l10.755,12.502
		c1.412,1.614,5.176,5.713,6.117,7.059c0.874-1.277,2.42-3.228,5.646-7.126l10.217-12.435H651.13z"/>
	<path class="st2" d="M532.652,395.702c2.038,0,3.655,1.165,3.655,3.171c0,1.973-1.617,3.105-3.655,3.105
		c-2.006,0-3.623-1.132-3.623-3.105C529.03,396.867,530.647,395.702,532.652,395.702z"/>
	<path class="st2" d="M569.726,396.058l-4.302,5.563h-10.868c-7.504,0-13.035-4.754-13.035-11.029c0-6.341,5.531-10.61,13.035-10.61
		h15.17l-4.302,5.628h-10.868c-3.623,0-6.339,2.167-6.339,5.273c0,3.072,2.684,5.175,6.339,5.175H569.726z"/>
	<path class="st2" d="M606.539,390.786c0,7.731-5.305,11.192-15.817,11.192c-10.545,0-15.817-3.462-15.817-11.192
		s5.272-11.16,15.817-11.16C601.234,379.626,606.539,383.055,606.539,390.786z M599.876,390.786c0-4.657-2.426-5.53-9.154-5.53
		s-9.154,0.873-9.154,5.53c0,4.658,2.427,5.563,9.154,5.563S599.876,395.444,599.876,390.786z"/>
	<path class="st2" d="M627.808,388.037c1.908,3.331,2.749,4.948,3.494,6.468c0.712-1.52,1.553-3.105,3.461-6.437l3.461-6.146
		c0.776-1.39,1.941-2.296,3.687-2.296c1.682,0,3.17,0.971,3.752,2.976l5.467,19.019h-6.663l-2.038-7.536
		c-0.679-2.458-1.132-4.206-1.487-5.953c-0.712,1.52-1.52,3.171-3.009,5.984l-2.911,5.434c-1.132,2.135-2.232,2.427-3.849,2.427
		c-1.617,0-2.717-0.292-3.849-2.427l-2.911-5.466c-1.585-2.976-2.361-4.497-3.041-5.953c-0.324,1.715-0.809,3.526-1.455,5.953
		l-2.038,7.536h-6.566l5.596-19.019c0.583-2.006,2.102-2.976,3.784-2.976c1.714,0,2.879,0.873,3.655,2.296L627.808,388.037z"/>
	<rect y="385.603" class="st1" width="512.332" height="8.65"/>
	<path class="st2" d="M424.635,358.032c-3.092-3.159-4.772-4.773-6.318-5.916c7.394-1.479,11.763-7.26,11.763-14.251
		c0-12.839-12.906-16.065-23.123-16.065h-28.904l-9.075,11.696h33.455c1.634-2.424,4.413-4.048,7.553-4.048
		c3.748-0.049,6.912,2.239,8.372,5.452h-6.523l-1.801,3.65l1.752,3.602h6.523c-1.363,3.213-4.576,5.452-8.324,5.5
		c-3.039,0-5.731-1.525-7.385-3.872h-33.623v22.989h13.915v-11.897h21.376l10.016,11.897h18.619L424.635,358.032z"/>
</g>
</svg>
